{
  "account": [
    {
      "id": 1,
      "username": "crddtest",
      "password": "$2a$10$764cqV5t5YbevSc1yghKlOwzRQU3QabDsJ6V6uZcJ0cy4YCinYbiW",
      "isAdmin": true,
      "isActive": true
    },
    {
      "id": 2,
      "username": "chess",
      "password": "$2a$10$QmgjYxGsOA.bBSR109cxCOHyr4iukU1VZi9ixpRIuISyoZvN3o662",
      "isAdmin": false,
      "isActive": true
    },
    {
      "id": 3,
      "username": "vuacovn",
      "password": "$2a$10$Dnm51iuzk0CrYv41YgKWPOccF0TeUFpxhw2x3BOoULJBchEMV.qQK",
      "isAdmin": false,
      "isActive": true
    },
    {
      "id": 4,
      "username": "vuamom",
      "password": "$2a$10$C7bROnaEgSP1888UcI4m7.TrkoOcPg9tNBqGsQdi8WWE3O1KjFo22",
      "isAdmin": false,
      "isActive": false
    },
    {
      "id": 5,
      "username": "manh1",
      "password": "$2a$10$1qVuV6K5s3QcVumP8wNFS.eIONGu9YndENcReF/PwUpZOxSDsK.7i",
      "isAdmin": false,
      "isActive": false
    },
    {
      "id": 6,
      "username": "as",
      "password": "$2a$10$nQTjccYuCp/PjwvqhP7EbeMGsRlr4LAej40RlzdrZ0Z69v3Q7/IJa",
      "isAdmin": false,
      "isActive": true
    },
    {
      "id": 7,
      "username": "sa1",
      "password": "$2a$10$aXuxlH1OhEM/8NRJm0GBfeobQJj3ZY5fID1le.xDZ0r.wyPMa3b26",
      "isAdmin": true,
      "isActive": true
    }
  ],
  "user": [
    {
      "id": 1,
      "name": "Kieu Viet Kien",
      "dob": "21/06/2002",
      "gender": "false",
      "city": "Viet Nam",
      "email": "kienkvhe@gmail.com"
    },
    {
      "id": 2,
      "name": "",
      "dob": "",
      "gender": true,
      "city": "",
      "email": ""
    },
    {
      "id": 3,
      "name": "",
      "dob": "",
      "gender": true,
      "city": "",
      "email": ""
    },
    {
      "id": 4,
      "name": "",
      "dob": "",
      "gender": true,
      "city": "",
      "email": ""
    },
    {
      "id": 5,
      "name": "",
      "dob": "",
      "gender": true,
      "city": "",
      "email": ""
    },
    {
      "id": 6,
      "name": "PHẠM ĐỨC MẠNH",
      "dob": "21/06/2002",
      "gender": true,
      "city": "SỐ NHÀ 13B LÔ 107 KHU B2 CÁT BI HẢI AN HẢI PHÒNG",
      "email": "f7fjsgre4@gmail.com"
    },
    {
      "id": 7,
      "name": "Nguyen Van A",
      "dob": "20/02/2002",
      "gender": true,
      "city": "SỐ NHÀ 13B LÔ 107 KHU B2 CÁT BI HẢI AN HẢI PHÒNG",
      "email": "admin@gmail.com"
    }
  ],
  "day": [
    {
      "id": 1,
      "todolistID": 1,
      "day": "15/7/2023"
    }
  ],
  "to_do_list": [
    {
      "title": "Nice Day",
      "summary": "Beautiful day without you",
      "date": "2023-07-05",
      "id": 1,
      "userId": 1
    },
    {
      "id": 3,
      "userId": 1,
      "title": "Gym",
      "summary": "Setup lịch tập gym và phối hợp ăn uống",
      "date": "2023-07-19",
      "isDone": false
    },
    {
      "id": 4,
      "userId": 1,
      "title": "Học Code",
      "summary": "Học NodeJS, JS",
      "date": "2023-07-20",
      "isDone": false
    }
  ],
  "to_do_list_detail": [
    {
      "id": 1,
      "toDoListId": 1,
      "name": "Breakfast",
      "timeAt": "07:30",
      "timeTo": "08:30",
      "description": "Chang lam gi ca",
      "isDone": true
    },
    {
      "id": 2,
      "toDoListId": 1,
      "name": "Lunch",
      "timeAt": "11:30",
      "timeTo": "12:30",
      "description": "Chang lam gi ca",
      "isDone": false
    },
    {
      "toDoListId": "1",
      "name": "New Detail",
      "timeAt": "09:00",
      "timeTo": "10:00",
      "description": "New detail description",
      "isDone": false,
      "id": 3
    },
    {
      "toDoListId": "1",
      "name": "New Detail",
      "timeAt": "09:00",
      "timeTo": "10:00",
      "description": "New detail description",
      "isDone": false,
      "id": 4
    },
    {
      "toDoListId": "1",
      "name": "New Detail",
      "timeAt": "09:00",
      "timeTo": "10:00",
      "description": "New detail description",
      "isDone": false,
      "id": 5
    },
    {
      "toDoListId": "1",
      "name": "New Detail",
      "timeAt": "09:00",
      "timeTo": "10:00",
      "description": "New detail description",
      "isDone": false,
      "id": 7
    },
    {
      "toDoListId": "1",
      "name": "New Detail",
      "timeAt": "09:00",
      "timeTo": "10:00",
      "description": "New detail description",
      "isDone": false,
      "id": 8
    },
    {
      "toDoListId": "2",
      "name": "Dậy ngay đê",
      "timeAt": "09:00",
      "timeTo": "09:30",
      "description": "Đánh răng rửa mặt, ăn sáng",
      "isDone": "on",
      "id": 9
    },
    {
      "toDoListId": "2",
      "name": "Setup Code",
      "timeAt": "09:30",
      "timeTo": "11:30",
      "description": "Fix bug tồn dư, sửa giao diện",
      "isDone": false,
      "id": 10
    },
    {
      "toDoListId": "2",
      "name": "Merge Code",
      "timeAt": "11:30",
      "timeTo": "12:25",
      "description": "Merge Code ",
      "isDone": "on",
      "id": 11
    },
    {
      "toDoListId": "4",
      "name": "New Detail",
      "timeAt": "00:00",
      "timeTo": "00:00",
      "description": "New detail description",
      "isDone": false,
      "id": 12
    },
    {
      "toDoListId": "4",
      "name": "New Detail",
      "timeAt": "00:00",
      "timeTo": "00:00",
      "description": "New detail description",
      "isDone": false,
      "id": 13
    },
    {
      "toDoListId": "4",
      "name": "New Detail",
      "timeAt": "00:00",
      "timeTo": "00:00",
      "description": "New detail description",
      "isDone": false,
      "id": 14
    }
  ]
}